Dates – COMP/STAT112 Notebook
…
# How many total births were there in this time period?
Birthdays %>%
  summarise(total_births = sum(births))

  total_births
1     70486538

# How many total births were there per state in this time period, sorted from low to high?
Birthdays %>%
  group_by(state) %>%
  summarise(total_births_per_state = sum(births)) %>%
  arrange(total_births_per_state)

# A tibble: 51 × 2
   state total_births_per_state
   <chr>                  <int>
 1 VT                    147886
 2 WY                    154019
 3 AK                    185385
 4 DE                    188705
 5 SD                    235734
 6 ND                    238696
 7 NV                    241470
 8 MT                    253884
 9 NH                    264984
10 RI                    265038
# ℹ 41 more rows
…
Example 2: Multiple Verbs

# Sort Gentoo penguins from biggest to smallest with respect to their 
# bill length in cm (there are 10 mm in a cm)
penguins |> 
  filter(species == "Gentoo") |> 
  mutate(bill_length_cm = bill_length_mm / 10) |> 
  arrange(desc(bill_length_cm))

# A tibble: 124 × 9
   species island bill_length_mm bill_depth_mm flipper_length_mm body_mass_g
   <chr>   <chr>           <dbl>         <dbl>             <dbl>       <dbl>
 1 Gentoo  Biscoe           59.6          17                 230        6050
 2 Gentoo  Biscoe           55.9          17                 228        5600
 3 Gentoo  Biscoe           55.1          16                 230        5850
 4 Gentoo  Biscoe           54.3          15.7               231        5650
 5 Gentoo  Biscoe           53.4          15.8               219        5500
 6 Gentoo  Biscoe           52.5          15.6               221        5450
 7 Gentoo  Biscoe           52.2          17.1               228        5400
 8 Gentoo  Biscoe           52.1          17                 230        5550
 9 Gentoo  Biscoe           51.5          16.3               230        5500
10 Gentoo  Biscoe           51.3          14.2               218        5300
# ℹ 114 more rows
# ℹ 3 more variables: sex <chr>, year <dbl>, bill_length_cm <dbl>
…
Exercise 2: More selecting

# First: recall the variable names
names(penguins)

[1] "species"           "island"            "bill_length_mm"   
[4] "bill_depth_mm"     "flipper_length_mm" "body_mass_g"      
[7] "sex"               "year"             

# Use a shortcut to keep everything but the year and island variables
penguins |> 
  select(-year, -island)

# A tibble: 344 × 6
   species bill_length_mm bill_depth_mm flipper_length_mm body_mass_g sex   
   <chr>            <dbl>         <dbl>             <dbl>       <dbl> <chr> 
 1 Adelie            39.1          18.7               181        3750 male  
 2 Adelie            39.5          17.4               186        3800 female
 3 Adelie            40.3          18                 195        3250 female
 4 Adelie            NA            NA                  NA          NA <NA>  
 5 Adelie            36.7          19.3               193        3450 female
 6 Adelie            39.3          20.6               190        3650 male  
 7 Adelie            38.9          17.8               181        3625 female
 8 Adelie            39.2          19.6               195        4675 male  
 9 Adelie            34.1          18.1               193        3475 <NA>  
10 Adelie            42            20.2               190        4250 <NA>  
# ℹ 334 more rows

# Use a shortcut to keep only species and the penguin characteristics measured in mm
penguins |> 
  select(species, ends_with("mm"))

# A tibble: 344 × 4
   species bill_length_mm bill_depth_mm flipper_length_mm
   <chr>            <dbl>         <dbl>             <dbl>
 1 Adelie            39.1          18.7               181
 2 Adelie            39.5          17.4               186
 3 Adelie            40.3          18                 195
 4 Adelie            NA            NA                  NA
 5 Adelie            36.7          19.3               193
 6 Adelie            39.3          20.6               190
 7 Adelie            38.9          17.8               181
 8 Adelie            39.2          19.6               195
 9 Adelie            34.1          18.1               193
10 Adelie            42            20.2               190
# ℹ 334 more rows

# Use a shortcut to keep only species and bill-related measurements
penguins |> 
  select(species, starts_with("bill"))

# A tibble: 344 × 3
   species bill_length_mm bill_depth_mm
   <chr>            <dbl>         <dbl>
 1 Adelie            39.1          18.7
 2 Adelie            39.5          17.4
 3 Adelie            40.3          18  
 4 Adelie            NA            NA  
 5 Adelie            36.7          19.3
 6 Adelie            39.3          20.6
 7 Adelie            38.9          17.8
 8 Adelie            39.2          19.6
 9 Adelie            34.1          18.1
10 Adelie            42            20.2
# ℹ 334 more rows

# Use a shortcut to keep only species and the length-related characteristics
penguins |> 
  select(species, contains("length"))

# A tibble: 344 × 3
   species bill_length_mm flipper_length_mm
   <chr>            <dbl>             <dbl>
 1 Adelie            39.1               181
 2 Adelie            39.5               186
 3 Adelie            40.3               195
 4 Adelie            NA                  NA
 5 Adelie            36.7               193
 6 Adelie            39.3               190
 7 Adelie            38.9               181
 8 Adelie            39.2               195
 9 Adelie            34.1               193
10 Adelie            42                 190
# ℹ 334 more rows
…
